[{"id":1,"first_name":"Richie","last_name":"Bubbins","email":"rbubbins0@mayoclinic.com"},
{"id":2,"first_name":"Vincents","last_name":"Botha","email":"vbotha1@yellowbook.com"},
{"id":3,"first_name":"Cloris","last_name":"McFetridge","email":"cmcfetridge2@wunderground.com"},
{"id":4,"first_name":"Brandi","last_name":"de Zamora","email":"bdezamora3@fastcompany.com"},
{"id":5,"first_name":"Jean","last_name":"Bendixen","email":"jbendixen4@uol.com.br"},
{"id":6,"first_name":"Gabriele","last_name":"Slaney","email":"gslaney5@washington.edu"},
{"id":7,"first_name":"Corny","last_name":"Nelles","email":"cnelles6@studiopress.com"},
{"id":8,"first_name":"Catarina","last_name":"Whitmell","email":"cwhitmell7@redcross.org"},
{"id":9,"first_name":"Lolly","last_name":"Ruprecht","email":"lruprecht8@twitpic.com"},
{"id":10,"first_name":"Ellynn","last_name":"Rainsdon","email":"erainsdon9@moonfruit.com"},
{"id":11,"first_name":"Dew","last_name":"Andersch","email":"danderscha@desdev.cn"},
{"id":12,"first_name":"Coral","last_name":"Rice","email":"criceb@gizmodo.com"},
{"id":13,"first_name":"Emilee","last_name":"Vockings","email":"evockingsc@guardian.co.uk"},
{"id":14,"first_name":"Shaylah","last_name":"Dobbinson","email":"sdobbinsond@blogs.com"},
{"id":15,"first_name":"Elsy","last_name":"Matteini","email":"ematteinie@macromedia.com"},
{"id":16,"first_name":"Natal","last_name":"Rowen","email":"nrowenf@nifty.com"},
{"id":17,"first_name":"Aurie","last_name":"Mowday","email":"amowdayg@lulu.com"},
{"id":18,"first_name":"Sapphira","last_name":"Indge","email":"sindgeh@opensource.org"},
{"id":19,"first_name":"Arv","last_name":"McVee","email":"amcveei@acquirethisname.com"},
{"id":20,"first_name":"Phyllida","last_name":"Haggerstone","email":"phaggerstonej@cornell.edu"},
{"id":21,"first_name":"Wendye","last_name":"Cornier","email":"wcornierk@auda.org.au"},
{"id":22,"first_name":"Boot","last_name":"Blumer","email":"bblumerl@com.com"},
{"id":23,"first_name":"Pancho","last_name":"Nobes","email":"pnobesm@mashable.com"},
{"id":24,"first_name":"Karalee","last_name":"Cambling","email":"kcamblingn@bloomberg.com"},
{"id":25,"first_name":"Bar","last_name":"Balston","email":"bbalstono@cloudflare.com"},
{"id":26,"first_name":"Isabella","last_name":"Kellie","email":"ikelliep@redcross.org"},
{"id":27,"first_name":"Hunter","last_name":"Rosenblatt","email":"hrosenblattq@bing.com"},
{"id":28,"first_name":"Felecia","last_name":"Petofi","email":"fpetofir@1und1.de"},
{"id":29,"first_name":"Sidonnie","last_name":"Oxberry","email":"soxberrys@tamu.edu"},
{"id":30,"first_name":"Sancho","last_name":"D'Abbot-Doyle","email":"sdabbotdoylet@51.la"}]